<svg width="131" height="39" viewBox="0 0 131 39" fill="none" xmlns="http://www.w3.org/2000/svg">
<path d="M27.3743 31.3821H24.0227V38.1087H17.2962V31.3821H0.49147L4.24147 4.4993H10.968L8.03835 24.679H17.2962V7.8743H24.0227V24.679H27.3743V31.3821ZM56.0383 38.1087H32.5071V4.4993H39.2337V31.3821H56.0383V38.1087ZM68.2024 31.968C68.4524 32.0462 68.7024 32.1009 68.9524 32.1321C69.2024 32.1477 69.4524 32.1555 69.7024 32.1555C70.3274 32.1555 70.929 32.0696 71.5071 31.8977C72.0852 31.7259 72.6243 31.4837 73.1243 31.1712C73.6399 30.843 74.093 30.4524 74.4837 29.9993C74.8899 29.5305 75.218 29.0149 75.468 28.4524L80.1555 33.1634C79.5618 34.0071 78.8743 34.7649 78.093 35.4368C77.3274 36.1087 76.4915 36.679 75.5852 37.1477C74.6946 37.6165 73.7493 37.968 72.7493 38.2024C71.7649 38.4524 70.7493 38.5774 69.7024 38.5774C67.9368 38.5774 66.2727 38.2493 64.7102 37.593C63.1633 36.9368 61.804 36.0227 60.6321 34.8509C59.4758 33.679 58.5618 32.2884 57.8899 30.679C57.218 29.054 56.8821 27.2727 56.8821 25.3352C56.8821 23.3509 57.218 21.5384 57.8899 19.8977C58.5618 18.2571 59.4758 16.8587 60.6321 15.7024C61.804 14.5462 63.1633 13.6477 64.7102 13.0071C66.2727 12.3665 67.9368 12.0462 69.7024 12.0462C70.7493 12.0462 71.7727 12.1712 72.7727 12.4212C73.7727 12.6712 74.718 13.0305 75.6087 13.4993C76.5149 13.968 77.3587 14.5462 78.1399 15.2337C78.9212 15.9055 79.6087 16.6634 80.2024 17.5071L68.2024 31.968ZM71.4837 18.7727C71.1868 18.6634 70.8899 18.593 70.593 18.5618C70.3118 18.5305 70.0149 18.5149 69.7024 18.5149C68.8274 18.5149 67.9993 18.679 67.218 19.0071C66.4524 19.3196 65.7805 19.7727 65.2024 20.3665C64.6399 20.9602 64.1946 21.679 63.8665 22.5227C63.5383 23.3509 63.3743 24.2884 63.3743 25.3352C63.3743 25.5696 63.3821 25.8352 63.3977 26.1321C63.429 26.429 63.468 26.7337 63.5149 27.0462C63.5774 27.343 63.6477 27.6321 63.7258 27.9134C63.804 28.1946 63.9055 28.4446 64.0305 28.6634L71.4837 18.7727ZM107.554 38.1087H106.007L103.523 34.6634C102.913 35.2102 102.265 35.7259 101.577 36.2102C100.906 36.679 100.195 37.093 99.4446 37.4524C98.6946 37.7962 97.9212 38.0696 97.1243 38.2727C96.343 38.4759 95.5462 38.5774 94.7337 38.5774C92.968 38.5774 91.304 38.2805 89.7415 37.6868C88.1946 37.093 86.8352 36.2337 85.6633 35.1087C84.5071 33.968 83.593 32.5774 82.9212 30.9368C82.2493 29.2962 81.9133 27.429 81.9133 25.3352C81.9133 23.3821 82.2493 21.593 82.9212 19.968C83.593 18.3274 84.5071 16.9212 85.6633 15.7493C86.8352 14.5774 88.1946 13.6712 89.7415 13.0305C91.304 12.3743 92.968 12.0462 94.7337 12.0462C95.5462 12.0462 96.3508 12.1477 97.1477 12.3509C97.9446 12.554 98.718 12.8352 99.468 13.1946C100.218 13.554 100.929 13.9759 101.601 14.4602C102.288 14.9446 102.929 15.468 103.523 16.0305L106.007 13.054H107.554V38.1087ZM101.109 25.3352C101.109 24.4602 100.937 23.6165 100.593 22.804C100.265 21.9759 99.8118 21.2493 99.2337 20.6243C98.6555 19.9837 97.9758 19.4759 97.1946 19.1009C96.429 18.7102 95.6087 18.5149 94.7337 18.5149C93.8587 18.5149 93.0305 18.6634 92.2493 18.9602C91.4837 19.2571 90.8118 19.6946 90.2337 20.2727C89.6712 20.8509 89.2258 21.5696 88.8977 22.429C88.5696 23.2727 88.4055 24.2415 88.4055 25.3352C88.4055 26.429 88.5696 27.4055 88.8977 28.2649C89.2258 29.1087 89.6712 29.8196 90.2337 30.3977C90.8118 30.9759 91.4837 31.4134 92.2493 31.7102C93.0305 32.0071 93.8587 32.1555 94.7337 32.1555C95.6087 32.1555 96.429 31.968 97.1946 31.593C97.9758 31.2024 98.6555 30.6946 99.2337 30.0696C99.8118 29.429 100.265 28.7024 100.593 27.8899C100.937 27.0618 101.109 26.2102 101.109 25.3352ZM120.585 38.1087H114.187V19.3821H111.07V13.0071H114.187V11.8118C114.187 10.2649 114.476 8.8118 115.054 7.45242C115.648 6.09305 116.452 4.91336 117.468 3.91336C118.499 2.89774 119.695 2.10086 121.054 1.52274C122.413 0.928986 123.866 0.632111 125.413 0.632111H130.218V7.00711H125.413C124.726 7.00711 124.085 7.13211 123.491 7.38211C122.913 7.61649 122.406 7.95242 121.968 8.38992C121.546 8.8118 121.21 9.31961 120.96 9.91336C120.71 10.4915 120.585 11.1243 120.585 11.8118V13.0071H128.437V19.3821H120.585V38.1087Z" fill="#509A36"/>
</svg>
